[
  {
    "id": "ma1",
    "name": "Buchenholz",
    "kostenStueck": 15,
    "bestand": 8,
    "aufstockenMinute": 2
  },
  {
    "id": "ma2",
    "name": "Schrauben",
    "kostenStueck": 0.1,
    "bestand": 5000,
    "aufstockenMinute": 200
  },
  {
    "id": "ma3",
    "name": "Eisen",
    "kostenStueck": 30,
    "bestand": 50,
    "aufstockenMinute": 3
  }
]